[{
        "id": 1,
        "date": "2020-01-27",
        "displayDate": "27-Jan-2020",
        "working": [{
                "name": "Cadence/Cumulus"
            },
            {
                "name": "OMNICEL/SFDC"
            },
            {
                "name": "OMNICEL/SFDC"
            }
        ]
    },
    {
        "id": 2,
        "date": "2020-02-3",
        "displayDate": "03-Feb-2020",
        "working": [{
                "name": "QA Dashboard Application"
            },
            {
                "name": "OMNICEL/SFDC"
            },
            {
                "name": "OMNICEL/SFDC"
            }
        ]
    },
    {
        "id": 3,
        "date": "2020-02-10",
        "displayDate": "10-Feb-2020",
        "working": [{
                "name": "Cadence/Cumulus"
            },
            {
                "name": "QA Dashboard Mobile Application"
            },
            {
                "name": "QA Dashboard Mobile Application"
            }
        ]
    },
    {
        "id": 4,
        "date": "2020-02-17",
        "displayDate": "17-Feb-2020",
        "working": [{
                "name": "OMNICEL"
            },
            {
                "name": "OMNICEL/SFDC"
            },
            {
                "name": "OMNICEL/SFDC"
            }
        ]
    }
]